digraph Status {
size="20,20"
nodesep="0.2"
center="1"
bgcolor="transparent"
rankdir=LR
mclimit=4.0
node [shape="box"];
node [fillcolor="yellow"];
node [style="filled"];
node [fontname="l048033t"];
node [fontsize="48"];

subgraph environments {
envAFS_servers
	[label="AFS servers"]
	[tooltip="Status: unknown, Dependencies: (none)"]
	[URL="#envAFS_servers"]
	[fillcolor="grey"]
	[shape="box"]	[peripheries=1]
;
envAIS
	[label="AIS"]
	[tooltip="Status: unknown, Dependencies: wont"]
	[URL="#envAIS"]
	[fillcolor="grey"]
	[shape="box"]	[peripheries=1]
;
envALEPH
	[label="ALEPH"]
	[tooltip="Status: unknown, Dependencies: (none)"]
	[URL="#envALEPH"]
	[fillcolor="grey"]
	[shape="box"]	[peripheries=1]
;
envALICE_offline
	[label="ALICE-offline"]
	[tooltip="Status: unknown, Dependencies: wont"]
	[URL="#envALICE_offline"]
	[fillcolor="grey"]
	[shape="box"]	[peripheries=2]
;
envALICE_online
	[label="ALICE-online"]
	[tooltip="Status: unknown, Dependencies: (none)"]
	[URL="#envALICE_online"]
	[fillcolor="grey"]
	[shape="box"]	[peripheries=2]
;
envATLAS_offline
	[label="ATLAS-offline"]
	[tooltip="Status: test, Dependencies: wont"]
	[URL="#envATLAS_offline"]
	[fillcolor="blue"]
	[shape="box"]	[peripheries=2]
;
envATLAS_online
	[label="ATLAS-online"]
	[tooltip="Status: unknown, Dependencies: wont"]
	[URL="#envATLAS_online"]
	[fillcolor="grey"]
	[shape="box"]	[peripheries=2]
;
envBE_CO_development
	[label="BE/CO-development"]
	[tooltip="Status: ok, Dependencies: test"]
	[URL="#envBE_CO_development"]
	[fillcolor="green"]
	[shape="box"]	[peripheries=2]
;
envBE_CO_operations
	[label="BE/CO-operations"]
	[tooltip="Status: ok, Dependencies: wont"]
	[URL="#envBE_CO_operations"]
	[fillcolor="green"]
	[shape="box"]	[peripheries=2]
;
envBase
	[label="Base"]
	[tooltip="Status: ok, Dependencies: ok"]
	[URL="#envBase"]
	[fillcolor="green"]
	[shape="box"]	[peripheries=1]
;
envCASTOR_service
	[label="CASTOR service"]
	[tooltip="Status: unknown, Dependencies: worksforme"]
	[URL="#envCASTOR_service"]
	[fillcolor="grey"]
	[shape="box"]	[peripheries=1]
;
envCERN_Document_Service
	[label="CERN Document Service"]
	[tooltip="Status: unknown, Dependencies: ok"]
	[URL="#envCERN_Document_Service"]
	[fillcolor="grey"]
	[shape="box"]	[peripheries=1]
;
envCMS_offline
	[label="CMS-offline"]
	[tooltip="Status: unknown, Dependencies: wont"]
	[URL="#envCMS_offline"]
	[fillcolor="grey"]
	[shape="box"]	[peripheries=2]
;
envCMS_online
	[label="CMS-online"]
	[tooltip="Status: unknown, Dependencies: test"]
	[URL="#envCMS_online"]
	[fillcolor="grey"]
	[shape="box"]	[peripheries=2]
;
envCOMPASS
	[label="COMPASS"]
	[tooltip="Status: unknown, Dependencies: test"]
	[URL="#envCOMPASS"]
	[fillcolor="grey"]
	[shape="box"]	[peripheries=1]
;
envCVI
	[label="CVI"]
	[tooltip="Status: ok, Dependencies: ok"]
	[URL="#envCVI"]
	[fillcolor="green"]
	[shape="box"]	[peripheries=1]
;
envCVS_servers
	[label="CVS servers"]
	[tooltip="Status: wont, Dependencies: test"]
	[URL="#envCVS_servers"]
	[fillcolor="orange"]
	[shape="box"]	[peripheries=1]
;
envCertification
	[label="Certification"]
	[tooltip="Status: unknown, Dependencies: fail"]
	[URL="#envCertification"]
	[fillcolor="grey"]
	[shape="box"]	[peripheries=1]
;
envDELPHI
	[label="DELPHI"]
	[tooltip="Status: unknown, Dependencies: (none)"]
	[URL="#envDELPHI"]
	[fillcolor="grey"]
	[shape="box"]	[peripheries=1]
;
envDIRAC
	[label="DIRAC"]
	[tooltip="Status: unknown, Dependencies: (none)"]
	[URL="#envDIRAC"]
	[fillcolor="grey"]
	[shape="box"]	[peripheries=1]
;
envDesktop
	[label="Desktop"]
	[tooltip="Status: ok, Dependencies: wont"]
	[URL="#envDesktop"]
	[fillcolor="green"]
	[shape="box"]	[peripheries=2]
;
envDevelopment_Support
	[label="Development Support"]
	[tooltip="Status: ok, Dependencies: worksforme"]
	[URL="#envDevelopment_Support"]
	[fillcolor="green"]
	[shape="box"]	[peripheries=1]
;
envDisk_Servers
	[label="Disk Servers"]
	[tooltip="Status: unknown, Dependencies: (none)"]
	[URL="#envDisk_Servers"]
	[fillcolor="grey"]
	[shape="box"]	[peripheries=1]
;
envEngineer_Desktop
	[label="Engineer Desktop"]
	[tooltip="Status: unknown, Dependencies: fail"]
	[URL="#envEngineer_Desktop"]
	[fillcolor="grey"]
	[shape="box"]	[peripheries=1]
;
envHARP
	[label="HARP"]
	[tooltip="Status: unknown, Dependencies: worksforme"]
	[URL="#envHARP"]
	[fillcolor="grey"]
	[shape="box"]	[peripheries=1]
;
envIT_CF
	[label="IT-CF"]
	[tooltip="Status: unknown, Dependencies: wont"]
	[URL="#envIT_CF"]
	[fillcolor="grey"]
	[shape="box"]	[peripheries=1]
;
envIT_CF_ASI
	[label="IT-CF-ASI"]
	[tooltip="Status: unknown, Dependencies: wont"]
	[URL="#envIT_CF_ASI"]
	[fillcolor="grey"]
	[shape="box"]	[peripheries=1]
;
envIT_CF_SAO
	[label="IT-CF-SAO"]
	[tooltip="Status: unknown, Dependencies: (none)"]
	[URL="#envIT_CF_SAO"]
	[fillcolor="grey"]
	[shape="box"]	[peripheries=1]
;
envIT_CIS
	[label="IT-CIS"]
	[tooltip="Status: unknown, Dependencies: wont"]
	[URL="#envIT_CIS"]
	[fillcolor="grey"]
	[shape="box"]	[peripheries=1]
;
envIT_CS
	[label="IT-CS"]
	[tooltip="Status: unknown, Dependencies: wont"]
	[URL="#envIT_CS"]
	[fillcolor="grey"]
	[shape="box"]	[peripheries=1]
;
envIT_DB
	[label="IT-DB"]
	[tooltip="Status: unknown, Dependencies: (none)"]
	[URL="#envIT_DB"]
	[fillcolor="grey"]
	[shape="box"]	[peripheries=1]
;
envIT_DI
	[label="IT-DI"]
	[tooltip="Status: unknown, Dependencies: (none)"]
	[URL="#envIT_DI"]
	[fillcolor="grey"]
	[shape="box"]	[peripheries=1]
;
envIT_DSS
	[label="IT-DSS"]
	[tooltip="Status: unknown, Dependencies: worksforme"]
	[URL="#envIT_DSS"]
	[fillcolor="grey"]
	[shape="box"]	[peripheries=1]
;
envIT_ES
	[label="IT-ES"]
	[tooltip="Status: unknown, Dependencies: (none)"]
	[URL="#envIT_ES"]
	[fillcolor="grey"]
	[shape="box"]	[peripheries=1]
;
envIT_GT
	[label="IT-GT"]
	[tooltip="Status: unknown, Dependencies: (none)"]
	[URL="#envIT_GT"]
	[fillcolor="grey"]
	[shape="box"]	[peripheries=1]
;
envIT_OIS
	[label="IT-OIS"]
	[tooltip="Status: unknown, Dependencies: wont"]
	[URL="#envIT_OIS"]
	[fillcolor="grey"]
	[shape="box"]	[peripheries=1]
;
envIT_OIS_ODS
	[label="IT-OIS-ODS"]
	[tooltip="Status: unknown, Dependencies: ok"]
	[URL="#envIT_OIS_ODS"]
	[fillcolor="grey"]
	[shape="box"]	[peripheries=1]
;
envIT_PES
	[label="IT-PES"]
	[tooltip="Status: unknown, Dependencies: fail"]
	[URL="#envIT_PES"]
	[fillcolor="grey"]
	[shape="box"]	[peripheries=1]
;
envIT_PES_PS
	[label="IT-PES-PS"]
	[tooltip="Status: unknown, Dependencies: ok"]
	[URL="#envIT_PES_PS"]
	[fillcolor="grey"]
	[shape="box"]	[peripheries=1]
;
envIT_services__catchall_
	[label="IT-services (catchall)"]
	[tooltip="Status: unknown, Dependencies: fail"]
	[URL="#envIT_services__catchall_"]
	[fillcolor="grey"]
	[shape="box"]	[peripheries=2]
;
envIndico
	[label="Indico"]
	[tooltip="Status: unknown, Dependencies: (none)"]
	[URL="#envIndico"]
	[fillcolor="grey"]
	[shape="box"]	[peripheries=1]
;
envLCG_application_Area
	[label="LCG application Area"]
	[tooltip="Status: unknown, Dependencies: test"]
	[URL="#envLCG_application_Area"]
	[fillcolor="grey"]
	[shape="box"]	[peripheries=2]
;
envLHCb_Offline
	[label="LHCb Offline"]
	[tooltip="Status: unknown, Dependencies: test"]
	[URL="#envLHCb_Offline"]
	[fillcolor="grey"]
	[shape="box"]	[peripheries=2]
;
envLHCb_Online
	[label="LHCb Online"]
	[tooltip="Status: unknown, Dependencies: worksforme"]
	[URL="#envLHCb_Online"]
	[fillcolor="grey"]
	[shape="box"]	[peripheries=2]
;
envLHCb_Production_Tools
	[label="LHCb Production Tools"]
	[tooltip="Status: unknown, Dependencies: (none)"]
	[URL="#envLHCb_Production_Tools"]
	[fillcolor="grey"]
	[shape="box"]	[peripheries=1]
;
envLHCb_Software_Development
	[label="LHCb Software Development"]
	[tooltip="Status: unknown, Dependencies: ok"]
	[URL="#envLHCb_Software_Development"]
	[fillcolor="grey"]
	[shape="box"]	[peripheries=1]
;
envLHCb_Visualisation
	[label="LHCb Visualisation"]
	[tooltip="Status: unknown, Dependencies: (none)"]
	[URL="#envLHCb_Visualisation"]
	[fillcolor="grey"]
	[shape="box"]	[peripheries=1]
;
envNA48
	[label="NA48"]
	[tooltip="Status: unknown, Dependencies: test"]
	[URL="#envNA48"]
	[fillcolor="grey"]
	[shape="box"]	[peripheries=1]
;
envNA49
	[label="NA49"]
	[tooltip="Status: unknown, Dependencies: (none)"]
	[URL="#envNA49"]
	[fillcolor="grey"]
	[shape="box"]	[peripheries=1]
;
envNA60
	[label="NA60"]
	[tooltip="Status: unknown, Dependencies: test"]
	[URL="#envNA60"]
	[fillcolor="grey"]
	[shape="box"]	[peripheries=1]
;
envNetwork_servers
	[label="Network servers"]
	[tooltip="Status: unknown, Dependencies: wont"]
	[URL="#envNetwork_servers"]
	[fillcolor="grey"]
	[shape="box"]	[peripheries=1]
;
envNon_LHC_experiments
	[label="Non-LHC experiments"]
	[tooltip="Status: unknown, Dependencies: fail"]
	[URL="#envNon_LHC_experiments"]
	[fillcolor="grey"]
	[shape="box"]	[peripheries=2]
;
envOPAL
	[label="OPAL"]
	[tooltip="Status: fail, Dependencies: worksforme"]
	[URL="#envOPAL"]
	[fillcolor="red"]
	[shape="box"]	[peripheries=1]
;
envOPERA
	[label="OPERA"]
	[tooltip="Status: unknown, Dependencies: (none)"]
	[URL="#envOPERA"]
	[fillcolor="grey"]
	[shape="box"]	[peripheries=1]
;
envPLUS_BATCH
	[label="PLUS/BATCH"]
	[tooltip="Status: unknown, Dependencies: wont"]
	[URL="#envPLUS_BATCH"]
	[fillcolor="grey"]
	[shape="box"]	[peripheries=2]
;
envSVN_Servers
	[label="SVN Servers"]
	[tooltip="Status: unknown, Dependencies: (none)"]
	[URL="#envSVN_Servers"]
	[fillcolor="grey"]
	[shape="box"]	[peripheries=1]
;
envTape_Servers
	[label="Tape Servers"]
	[tooltip="Status: unknown, Dependencies: (none)"]
	[URL="#envTape_Servers"]
	[fillcolor="grey"]
	[shape="box"]	[peripheries=1]
;
envVideoconference
	[label="Videoconference"]
	[tooltip="Status: unknown, Dependencies: unknown"]
	[URL="#envVideoconference"]
	[fillcolor="grey"]
	[shape="box"]	[peripheries=1]
;
envWeb_servers
	[label="Web servers"]
	[tooltip="Status: unknown, Dependencies: ok"]
	[URL="#envWeb_servers"]
	[fillcolor="grey"]
	[shape="box"]	[peripheries=1]
;
envWebcast
	[label="Webcast"]
	[tooltip="Status: unknown, Dependencies: wont"]
	[URL="#envWebcast"]
	[fillcolor="grey"]
	[shape="box"]	[peripheries=1]
;
envcommercial_development_tools
	[label="commercial development tools"]
	[tooltip="Status: unknown, Dependencies: unknown"]
	[URL="#envcommercial_development_tools"]
	[fillcolor="grey"]
	[shape="box"]	[peripheries=1]
;
envdistcc_cluster
	[label="distcc cluster"]
	[tooltip="Status: worksforme, Dependencies: (none)"]
	[URL="#envdistcc_cluster"]
	[fillcolor="#8CEF8C"]
	[shape="box"]	[peripheries=1]
;
}
subgraph packages {
pkgANSYS12_1___13
	[label="ANSYS"]
	[tooltip="Status: ok, Dependencies: (none)"]
	[URL="#pkgANSYS12_1___13"]
	[fillcolor="green"]
	[shape="ellipse"]
;
pkgAnsys_Workbench13
	[label="Ansys Workbench"]
	[tooltip="Status: ok, Dependencies: (none)"]
	[URL="#pkgAnsys_Workbench13"]
	[fillcolor="green"]
	[shape="ellipse"]
;
pkgCASTOR_client_sw2_1_11
	[label="CASTOR client sw"]
	[tooltip="Status: worksforme, Dependencies: (none)"]
	[URL="#pkgCASTOR_client_sw2_1_11"]
	[fillcolor="#8CEF8C"]
	[shape="ellipse"]
;
pkgCASTOR_server_sw2_1_11
	[label="CASTOR server sw"]
	[tooltip="Status: unknown, Dependencies: worksforme"]
	[URL="#pkgCASTOR_server_sw2_1_11"]
	[fillcolor="grey"]
	[shape="ellipse"]
;
pkgCERN_TeX_styles
	[label="CERN TeX styles"]
	[tooltip="Status: test, Dependencies: (none)"]
	[URL="#pkgCERN_TeX_styles"]
	[fillcolor="blue"]
	[shape="ellipse"]
;
pkgCERNLIB2006_3
	[label="CERNLIB"]
	[tooltip="Status: unknown, Dependencies: worksforme"]
	[URL="#pkgCERNLIB2006_3"]
	[fillcolor="grey"]
	[shape="ellipse"]
;
pkgCMT
	[label="CMT"]
	[tooltip="Status: test, Dependencies: ok"]
	[URL="#pkgCMT"]
	[fillcolor="blue"]
	[shape="ellipse"]
;
pkgCVS_client
	[label="CVS client"]
	[tooltip="Status: test, Dependencies: (none)"]
	[URL="#pkgCVS_client"]
	[fillcolor="blue"]
	[shape="ellipse"]
;
pkgCadence_SPB16_02
	[label="Cadence SPB"]
	[tooltip="Status: fail, Dependencies: (none)"]
	[URL="#pkgCadence_SPB16_02"]
	[fillcolor="red"]
	[shape="ellipse"]
;
pkgCadence_iUS8_2
	[label="Cadence iUS"]
	[tooltip="Status: worksforme, Dependencies: (none)"]
	[URL="#pkgCadence_iUS8_2"]
	[fillcolor="#8CEF8C"]
	[shape="ellipse"]
;
pkgDATE
	[label="DATE"]
	[tooltip="Status: unknown, Dependencies: (none)"]
	[URL="#pkgDATE"]
	[fillcolor="grey"]
	[shape="ellipse"]
;
pkgEDH_web_client
	[label="EDH web client"]
	[tooltip="Status: unknown, Dependencies: wont"]
	[URL="#pkgEDH_web_client"]
	[fillcolor="grey"]
	[shape="ellipse"]
;
pkgELFms
	[label="ELFms"]
	[tooltip="Status: unknown, Dependencies: unknown"]
	[URL="#pkgELFms"]
	[fillcolor="grey"]
	[shape="ellipse"]
;
pkgELFms_CC_tools
	[label="ELFms-CC tools"]
	[tooltip="Status: unknown, Dependencies: (none)"]
	[URL="#pkgELFms_CC_tools"]
	[fillcolor="grey"]
	[shape="ellipse"]
;
pkgGAUDI
	[label="GAUDI"]
	[tooltip="Status: unknown, Dependencies: test"]
	[URL="#pkgGAUDI"]
	[fillcolor="grey"]
	[shape="ellipse"]
;
pkgGEANT3
	[label="GEANT3"]
	[tooltip="Status: unknown, Dependencies: (none)"]
	[URL="#pkgGEANT3"]
	[fillcolor="grey"]
	[shape="ellipse"]
;
pkgGEANT4
	[label="GEANT4"]
	[tooltip="Status: unknown, Dependencies: ok"]
	[URL="#pkgGEANT4"]
	[fillcolor="grey"]
	[shape="ellipse"]
;
pkgHEPiX_shells_scripts
	[label="HEPiX shells scripts"]
	[tooltip="Status: test, Dependencies: (none)"]
	[URL="#pkgHEPiX_shells_scripts"]
	[fillcolor="blue"]
	[shape="ellipse"]
;
pkgHFSS12_1
	[label="HFSS"]
	[tooltip="Status: fail, Dependencies: (none)"]
	[URL="#pkgHFSS12_1"]
	[fillcolor="red"]
	[shape="ellipse"]
;
pkgHummingbird_eXceed
	[label="Hummingbird eXceed"]
	[tooltip="Status: wont, Dependencies: (none)"]
	[URL="#pkgHummingbird_eXceed"]
	[fillcolor="orange"]
	[shape="ellipse"]
;
pkgInstallation
	[label="Installation"]
	[tooltip="Status: ok, Dependencies: (none)"]
	[URL="#pkgInstallation"]
	[fillcolor="green"]
	[shape="ellipse"]
;
pkgJava__JDK_
	[label="Java (JDK)"]
	[tooltip="Status: ok, Dependencies: (none)"]
	[URL="#pkgJava__JDK_"]
	[fillcolor="green"]
	[shape="ellipse"]
;
pkgJava__JRE_
	[label="Java (JRE)"]
	[tooltip="Status: ok, Dependencies: (none)"]
	[URL="#pkgJava__JRE_"]
	[fillcolor="green"]
	[shape="ellipse"]
;
pkgLEAF
	[label="LEAF"]
	[tooltip="Status: unknown, Dependencies: (none)"]
	[URL="#pkgLEAF"]
	[fillcolor="grey"]
	[shape="ellipse"]
;
pkgLEMON
	[label="LEMON"]
	[tooltip="Status: unknown, Dependencies: unknown"]
	[URL="#pkgLEMON"]
	[fillcolor="grey"]
	[shape="ellipse"]
;
pkgLEMON_sensors
	[label="LEMON sensors"]
	[tooltip="Status: unknown, Dependencies: (none)"]
	[URL="#pkgLEMON_sensors"]
	[fillcolor="grey"]
	[shape="ellipse"]
;
pkgLIBSHIFT
	[label="LIBSHIFT"]
	[tooltip="Status: unknown, Dependencies: worksforme"]
	[URL="#pkgLIBSHIFT"]
	[fillcolor="grey"]
	[shape="ellipse"]
;
pkgLSF
	[label="LSF"]
	[tooltip="Status: worksforme, Dependencies: ok"]
	[URL="#pkgLSF"]
	[fillcolor="#8CEF8C"]
	[shape="ellipse"]
;
pkgLabview8_6
	[label="Labview"]
	[tooltip="Status: unknown, Dependencies: (none)"]
	[URL="#pkgLabview8_6"]
	[fillcolor="grey"]
	[shape="ellipse"]
;
pkgLahey_Fortran
	[label="Lahey Fortran"]
	[tooltip="Status: unknown, Dependencies: (none)"]
	[URL="#pkgLahey_Fortran"]
	[fillcolor="grey"]
	[shape="ellipse"]
;
pkgMADX__
	[label="MAD"]
	[tooltip="Status: unknown, Dependencies: wont"]
	[URL="#pkgMADX__"]
	[fillcolor="grey"]
	[shape="ellipse"]
;
pkgMATLABR2010a
	[label="MATLAB"]
	[tooltip="Status: worksforme, Dependencies: (none)"]
	[URL="#pkgMATLABR2010a"]
	[fillcolor="#8CEF8C"]
	[shape="ellipse"]
;
pkgMathematica8
	[label="Mathematica"]
	[tooltip="Status: worksforme, Dependencies: (none)"]
	[URL="#pkgMathematica8"]
	[fillcolor="#8CEF8C"]
	[shape="ellipse"]
;
pkgNAG_Fortran
	[label="NAG Fortran"]
	[tooltip="Status: unknown, Dependencies: (none)"]
	[URL="#pkgNAG_Fortran"]
	[fillcolor="grey"]
	[shape="ellipse"]
;
pkgNAG_C
	[label="NAG-C"]
	[tooltip="Status: wont, Dependencies: ok"]
	[URL="#pkgNAG_C"]
	[fillcolor="orange"]
	[shape="ellipse"]
;
pkgNCM_components
	[label="NCM components"]
	[tooltip="Status: unknown, Dependencies: (none)"]
	[URL="#pkgNCM_components"]
	[fillcolor="grey"]
	[shape="ellipse"]
;
pkgORACLE_Full_Client_Software10gR2__10_2_0_5___11gR2__11_2_0_3_
	[label="ORACLE Full Client Software"]
	[tooltip="Status: worksforme, Dependencies: (none)"]
	[URL="#pkgORACLE_Full_Client_Software10gR2__10_2_0_5___11gR2__11_2_0_3_"]
	[fillcolor="#8CEF8C"]
	[shape="ellipse"]
;
pkgORACLE_Instant_Client11_0_2_0_3
	[label="ORACLE Instant Client"]
	[tooltip="Status: worksforme, Dependencies: (none)"]
	[URL="#pkgORACLE_Instant_Client11_0_2_0_3"]
	[fillcolor="#8CEF8C"]
	[shape="ellipse"]
;
pkgOpenAFS1_4_14
	[label="OpenAFS"]
	[tooltip="Status: ok, Dependencies: ok"]
	[URL="#pkgOpenAFS1_4_14"]
	[fillcolor="green"]
	[shape="ellipse"]
;
pkgOpenMotif
	[label="OpenMotif"]
	[tooltip="Status: ok, Dependencies: (none)"]
	[URL="#pkgOpenMotif"]
	[fillcolor="green"]
	[shape="ellipse"]
;
pkgPGI_compilers
	[label="PGI compilers"]
	[tooltip="Status: unknown, Dependencies: (none)"]
	[URL="#pkgPGI_compilers"]
	[fillcolor="grey"]
	[shape="ellipse"]
;
pkgPVSS3_8SP2
	[label="PVSS"]
	[tooltip="Status: ok, Dependencies: worksforme"]
	[URL="#pkgPVSS3_8SP2"]
	[fillcolor="green"]
	[shape="ellipse"]
;
pkgPrepareInstall
	[label="PrepareInstall"]
	[tooltip="Status: unknown, Dependencies: ok"]
	[URL="#pkgPrepareInstall"]
	[fillcolor="grey"]
	[shape="ellipse"]
;
pkgREMEDY_web_client
	[label="REMEDY web client"]
	[tooltip="Status: unknown, Dependencies: wont"]
	[URL="#pkgREMEDY_web_client"]
	[fillcolor="grey"]
	[shape="ellipse"]
;
pkgROOT
	[label="ROOT"]
	[tooltip="Status: unknown, Dependencies: ok"]
	[URL="#pkgROOT"]
	[fillcolor="grey"]
	[shape="ellipse"]
;
pkgROXIE
	[label="ROXIE"]
	[tooltip="Status: ok, Dependencies: (none)"]
	[URL="#pkgROXIE"]
	[fillcolor="green"]
	[shape="ellipse"]
;
pkgSIXTRACK
	[label="SIXTRACK"]
	[tooltip="Status: unknown, Dependencies: wont"]
	[URL="#pkgSIXTRACK"]
	[fillcolor="grey"]
	[shape="ellipse"]
;
pkgSTK_SSI
	[label="STK-SSI"]
	[tooltip="Status: unknown, Dependencies: (none)"]
	[URL="#pkgSTK_SSI"]
	[fillcolor="grey"]
	[shape="ellipse"]
;
pkgSeamonkey
	[label="Seamonkey"]
	[tooltip="Status: wont, Dependencies: (none)"]
	[URL="#pkgSeamonkey"]
	[fillcolor="orange"]
	[shape="ellipse"]
;
pkgShibboleth
	[label="Shibboleth"]
	[tooltip="Status: ok, Dependencies: (none)"]
	[URL="#pkgShibboleth"]
	[fillcolor="green"]
	[shape="ellipse"]
;
pkgStar_CCM_5_04_and_6_01
	[label="Star-CCM+"]
	[tooltip="Status: test, Dependencies: (none)"]
	[URL="#pkgStar_CCM_5_04_and_6_01"]
	[fillcolor="blue"]
	[shape="ellipse"]
;
pkgStarCD4_0_6
	[label="StarCD"]
	[tooltip="Status: wont, Dependencies: (none)"]
	[URL="#pkgStarCD4_0_6"]
	[fillcolor="orange"]
	[shape="ellipse"]
;
pkgTSM_client
	[label="TSM client"]
	[tooltip="Status: unknown, Dependencies: (none)"]
	[URL="#pkgTSM_client"]
	[fillcolor="grey"]
	[shape="ellipse"]
;
pkgTeX_LaTeX
	[label="TeX/LaTeX"]
	[tooltip="Status: test, Dependencies: (none)"]
	[URL="#pkgTeX_LaTeX"]
	[fillcolor="blue"]
	[shape="ellipse"]
;
pkgTotalView
	[label="TotalView"]
	[tooltip="Status: unknown, Dependencies: (none)"]
	[URL="#pkgTotalView"]
	[fillcolor="grey"]
	[shape="ellipse"]
;
pkgVDT_Globus
	[label="VDT/Globus"]
	[tooltip="Status: ok, Dependencies: (none)"]
	[URL="#pkgVDT_Globus"]
	[fillcolor="green"]
	[shape="ellipse"]
;
pkgVidyo
	[label="Vidyo"]
	[tooltip="Status: unknown, Dependencies: (none)"]
	[URL="#pkgVidyo"]
	[fillcolor="grey"]
	[shape="ellipse"]
;
pkgX_Win32
	[label="X-Win32"]
	[tooltip="Status: test, Dependencies: (none)"]
	[URL="#pkgX_Win32"]
	[fillcolor="blue"]
	[shape="ellipse"]
;
pkgacrobat
	[label="acrobat"]
	[tooltip="Status: wont, Dependencies: (none)"]
	[URL="#pkgacrobat"]
	[fillcolor="orange"]
	[shape="ellipse"]
;
pkgacrontab
	[label="acrontab"]
	[tooltip="Status: unknown, Dependencies: (none)"]
	[URL="#pkgacrontab"]
	[fillcolor="grey"]
	[shape="ellipse"]
;
pkgalpine
	[label="alpine"]
	[tooltip="Status: test, Dependencies: (none)"]
	[URL="#pkgalpine"]
	[fillcolor="blue"]
	[shape="ellipse"]
;
pkgarc
	[label="arc"]
	[tooltip="Status: unknown, Dependencies: (none)"]
	[URL="#pkgarc"]
	[fillcolor="grey"]
	[shape="ellipse"]
;
pkgcdb_server
	[label="cdb server"]
	[tooltip="Status: unknown, Dependencies: (none)"]
	[URL="#pkgcdb_server"]
	[fillcolor="grey"]
	[shape="ellipse"]
;
pkgcompat_gcc_34
	[label="compat-gcc-34"]
	[tooltip="Status: ok, Dependencies: (none)"]
	[URL="#pkgcompat_gcc_34"]
	[fillcolor="green"]
	[shape="ellipse"]
;
pkgconserver
	[label="conserver"]
	[tooltip="Status: wont, Dependencies: (none)"]
	[URL="#pkgconserver"]
	[fillcolor="orange"]
	[shape="ellipse"]
;
pkgddd
	[label="ddd"]
	[tooltip="Status: ok, Dependencies: (none)"]
	[URL="#pkgddd"]
	[fillcolor="green"]
	[shape="ellipse"]
;
pkgemacs
	[label="emacs"]
	[tooltip="Status: ok, Dependencies: (none)"]
	[URL="#pkgemacs"]
	[fillcolor="green"]
	[shape="ellipse"]
;
pkgemacs_el
	[label="emacs-el"]
	[tooltip="Status: ok, Dependencies: ok"]
	[URL="#pkgemacs_el"]
	[fillcolor="green"]
	[shape="ellipse"]
;
pkgexpect
	[label="expect"]
	[tooltip="Status: ok, Dependencies: (none)"]
	[URL="#pkgexpect"]
	[fillcolor="green"]
	[shape="ellipse"]
;
pkgf2c
	[label="f2c"]
	[tooltip="Status: wont, Dependencies: (none)"]
	[URL="#pkgf2c"]
	[fillcolor="orange"]
	[shape="ellipse"]
;
pkgflash_player
	[label="flash-player"]
	[tooltip="Status: wont, Dependencies: (none)"]
	[URL="#pkgflash_player"]
	[fillcolor="orange"]
	[shape="ellipse"]
;
pkgfsplit5_5_3
	[label="fsplit"]
	[tooltip="Status: worksforme, Dependencies: (none)"]
	[URL="#pkgfsplit5_5_3"]
	[fillcolor="#8CEF8C"]
	[shape="ellipse"]
;
pkggcc
	[label="gcc"]
	[tooltip="Status: ok, Dependencies: (none)"]
	[URL="#pkggcc"]
	[fillcolor="green"]
	[shape="ellipse"]
;
pkggdb
	[label="gdb"]
	[tooltip="Status: ok, Dependencies: (none)"]
	[URL="#pkggdb"]
	[fillcolor="green"]
	[shape="ellipse"]
;
pkggdm
	[label="gdm"]
	[tooltip="Status: ok, Dependencies: (none)"]
	[URL="#pkggdm"]
	[fillcolor="green"]
	[shape="ellipse"]
;
pkggfortran
	[label="gfortran"]
	[tooltip="Status: ok, Dependencies: (none)"]
	[URL="#pkggfortran"]
	[fillcolor="green"]
	[shape="ellipse"]
;
pkgghostview_gv
	[label="ghostview/gv"]
	[tooltip="Status: ok, Dependencies: (none)"]
	[URL="#pkgghostview_gv"]
	[fillcolor="green"]
	[shape="ellipse"]
;
pkgglibc_static
	[label="glibc-static"]
	[tooltip="Status: ok, Dependencies: (none)"]
	[URL="#pkgglibc_static"]
	[fillcolor="green"]
	[shape="ellipse"]
;
pkghtml2ps
	[label="html2ps"]
	[tooltip="Status: ok, Dependencies: (none)"]
	[URL="#pkghtml2ps"]
	[fillcolor="green"]
	[shape="ellipse"]
;
pkgipmitool
	[label="ipmitool"]
	[tooltip="Status: ok, Dependencies: (none)"]
	[URL="#pkgipmitool"]
	[fillcolor="green"]
	[shape="ellipse"]
;
pkgkernel
	[label="kernel"]
	[tooltip="Status: ok, Dependencies: ok"]
	[URL="#pkgkernel"]
	[fillcolor="green"]
	[shape="ellipse"]
;
pkgkernel_source
	[label="kernel-source"]
	[tooltip="Status: ok, Dependencies: ok"]
	[URL="#pkgkernel_source"]
	[fillcolor="green"]
	[shape="ellipse"]
;
pkgmail_clients
	[label="mail clients"]
	[tooltip="Status: ok, Dependencies: wont"]
	[URL="#pkgmail_clients"]
	[fillcolor="green"]
	[shape="ellipse"]
;
pkgmod_perl
	[label="mod-perl"]
	[tooltip="Status: ok, Dependencies: (none)"]
	[URL="#pkgmod_perl"]
	[fillcolor="green"]
	[shape="ellipse"]
;
pkgmshvicrhel6_60__also_called__3__
	[label="mshvic"]
	[tooltip="Status: ok, Dependencies: (none)"]
	[URL="#pkgmshvicrhel6_60__also_called__3__"]
	[fillcolor="green"]
	[shape="ellipse"]
;
pkgmysql
	[label="mysql"]
	[tooltip="Status: ok, Dependencies: (none)"]
	[URL="#pkgmysql"]
	[fillcolor="green"]
	[shape="ellipse"]
;
pkgnpatchy
	[label="npatchy"]
	[tooltip="Status: unknown, Dependencies: (none)"]
	[URL="#pkgnpatchy"]
	[fillcolor="grey"]
	[shape="ellipse"]
;
pkgopenoffice
	[label="openoffice"]
	[tooltip="Status: ok, Dependencies: (none)"]
	[URL="#pkgopenoffice"]
	[fillcolor="green"]
	[shape="ellipse"]
;
pkgoprofile
	[label="oprofile"]
	[tooltip="Status: ok, Dependencies: ok"]
	[URL="#pkgoprofile"]
	[fillcolor="green"]
	[shape="ellipse"]
;
pkgpaw
	[label="paw"]
	[tooltip="Status: unknown, Dependencies: (none)"]
	[URL="#pkgpaw"]
	[fillcolor="grey"]
	[shape="ellipse"]
;
pkgperl
	[label="perl"]
	[tooltip="Status: ok, Dependencies: (none)"]
	[URL="#pkgperl"]
	[fillcolor="green"]
	[shape="ellipse"]
;
pkgperl_BSD_Resource
	[label="perl-BSD-Resource"]
	[tooltip="Status: ok, Dependencies: (none)"]
	[URL="#pkgperl_BSD_Resource"]
	[fillcolor="green"]
	[shape="ellipse"]
;
pkgperl_DBD_CSV
	[label="perl-DBD-CSV"]
	[tooltip="Status: ok, Dependencies: (none)"]
	[URL="#pkgperl_DBD_CSV"]
	[fillcolor="green"]
	[shape="ellipse"]
;
pkgperl_DBD_Oracle
	[label="perl-DBD-Oracle"]
	[tooltip="Status: ok, Dependencies: worksforme"]
	[URL="#pkgperl_DBD_Oracle"]
	[fillcolor="green"]
	[shape="ellipse"]
;
pkgperl_Proc_ProcessTable
	[label="perl-Proc-ProcessTable"]
	[tooltip="Status: ok, Dependencies: (none)"]
	[URL="#pkgperl_Proc_ProcessTable"]
	[fillcolor="green"]
	[shape="ellipse"]
;
pkgperl_SQL_Statement
	[label="perl-SQL-Statement"]
	[tooltip="Status: ok, Dependencies: (none)"]
	[URL="#pkgperl_SQL_Statement"]
	[fillcolor="green"]
	[shape="ellipse"]
;
pkgperl_Text_CSV_XS
	[label="perl-Text-CSV_XS"]
	[tooltip="Status: ok, Dependencies: (none)"]
	[URL="#pkgperl_Text_CSV_XS"]
	[fillcolor="green"]
	[shape="ellipse"]
;
pkgperl_Tk
	[label="perl-Tk"]
	[tooltip="Status: ok, Dependencies: (none)"]
	[URL="#pkgperl_Tk"]
	[fillcolor="green"]
	[shape="ellipse"]
;
pkgphonebook
	[label="phonebook"]
	[tooltip="Status: ok, Dependencies: (none)"]
	[URL="#pkgphonebook"]
	[fillcolor="green"]
	[shape="ellipse"]
;
pkgpico
	[label="pico"]
	[tooltip="Status: ok, Dependencies: (none)"]
	[URL="#pkgpico"]
	[fillcolor="green"]
	[shape="ellipse"]
;
pkgprinting
	[label="printing"]
	[tooltip="Status: ok, Dependencies: (none)"]
	[URL="#pkgprinting"]
	[fillcolor="green"]
	[shape="ellipse"]
;
pkgpython
	[label="python"]
	[tooltip="Status: ok, Dependencies: (none)"]
	[URL="#pkgpython"]
	[fillcolor="green"]
	[shape="ellipse"]
;
pkgqt
	[label="qt"]
	[tooltip="Status: ok, Dependencies: (none)"]
	[URL="#pkgqt"]
	[fillcolor="green"]
	[shape="ellipse"]
;
pkgquattor
	[label="quattor"]
	[tooltip="Status: unknown, Dependencies: unknown"]
	[URL="#pkgquattor"]
	[fillcolor="grey"]
	[shape="ellipse"]
;
pkgquattor_client_software
	[label="quattor client software"]
	[tooltip="Status: unknown, Dependencies: (none)"]
	[URL="#pkgquattor_client_software"]
	[fillcolor="grey"]
	[shape="ellipse"]
;
pkgrdesktop
	[label="rdesktop"]
	[tooltip="Status: test, Dependencies: (none)"]
	[URL="#pkgrdesktop"]
	[fillcolor="blue"]
	[shape="ellipse"]
;
pkgsendmail
	[label="sendmail"]
	[tooltip="Status: ok, Dependencies: (none)"]
	[URL="#pkgsendmail"]
	[fillcolor="green"]
	[shape="ellipse"]
;
pkgssh
	[label="ssh"]
	[tooltip="Status: ok, Dependencies: (none)"]
	[URL="#pkgssh"]
	[fillcolor="green"]
	[shape="ellipse"]
;
pkgsubversion1_6
	[label="subversion"]
	[tooltip="Status: ok, Dependencies: (none)"]
	[URL="#pkgsubversion1_6"]
	[fillcolor="green"]
	[shape="ellipse"]
;
pkgswrep_server
	[label="swrep server"]
	[tooltip="Status: unknown, Dependencies: (none)"]
	[URL="#pkgswrep_server"]
	[fillcolor="grey"]
	[shape="ellipse"]
;
pkgtcl_tk
	[label="tcl/tk"]
	[tooltip="Status: ok, Dependencies: (none)"]
	[URL="#pkgtcl_tk"]
	[fillcolor="green"]
	[shape="ellipse"]
;
pkgtcsh
	[label="tcsh"]
	[tooltip="Status: ok, Dependencies: (none)"]
	[URL="#pkgtcsh"]
	[fillcolor="green"]
	[shape="ellipse"]
;
pkgtkdiff
	[label="tkdiff"]
	[tooltip="Status: ok, Dependencies: (none)"]
	[URL="#pkgtkdiff"]
	[fillcolor="green"]
	[shape="ellipse"]
;
pkgvi
	[label="vi"]
	[tooltip="Status: ok, Dependencies: (none)"]
	[URL="#pkgvi"]
	[fillcolor="green"]
	[shape="ellipse"]
;
pkgxscreensaver
	[label="xscreensaver"]
	[tooltip="Status: ok, Dependencies: (none)"]
	[URL="#pkgxscreensaver"]
	[fillcolor="green"]
	[shape="ellipse"]
;
}
subgraph configs {
cfg3ware_driver
	[label="3ware driver"]
	[tooltip="Status: wont, Dependencies: (none)"]
	[URL="#cfg3ware_driver"]
	[fillcolor="orange"]
	[shape="parallelogram"]
;
cfge1000_driver
	[label="e1000 driver"]
	[tooltip="Status: wont, Dependencies: (none)"]
	[URL="#cfge1000_driver"]
	[fillcolor="orange"]
	[shape="parallelogram"]
;
cfgkernel_scheduling
	[label="kernel-scheduling"]
	[tooltip="Status: ok, Dependencies: (none)"]
	[URL="#cfgkernel_scheduling"]
	[fillcolor="green"]
	[shape="parallelogram"]
;
}
subgraph loose {
node [style="dashed"]
pkgAxalant_EDMS_client
	[label="Axalant EDMS client"]
	[tooltip="Status: wont, Dependencies: (none)"]
	[URL="#pkgAxalant_EDMS_client"]
	[fillcolor="yellow"]
	[shape="ellipse"]
;
envIT_UDS
	[label="IT-UDS"]
	[tooltip="Status: wont, Dependencies: (none)"]
	[URL="#envIT_UDS"]
	[fillcolor="yellow"]
	[shape="ellipse"]
;
pkgMathLink
	[label="MathLink"]
	[tooltip="Status: wont, Dependencies: (none)"]
	[URL="#pkgMathLink"]
	[fillcolor="yellow"]
	[shape="ellipse"]
;
pkgXt
	[label="Xt"]
	[tooltip="Status: ok, Dependencies: (none)"]
	[URL="#pkgXt"]
	[fillcolor="yellow"]
	[shape="ellipse"]
;
pkgg77
	[label="g77"]
	[tooltip="Status: wont, Dependencies: (none)"]
	[URL="#pkgg77"]
	[fillcolor="yellow"]
	[shape="ellipse"]
;
}
envAIS -> pkgEDH_web_client;
envALICE_offline -> envPLUS_BATCH;
envALICE_offline -> pkgROOT;
envATLAS_offline -> pkgJava__JDK_;
envATLAS_offline -> pkggcc;
envATLAS_offline -> pkgssh;
envATLAS_offline -> pkgacrontab;
envATLAS_offline -> pkgGEANT4;
envATLAS_offline -> pkgoprofile;
envATLAS_offline -> pkgROOT;
envATLAS_offline -> pkgGAUDI;
envATLAS_offline -> envPLUS_BATCH;
envATLAS_offline -> envdistcc_cluster;
envATLAS_offline -> envLCG_application_Area;
envATLAS_offline -> pkgsubversion1_6;
envATLAS_offline -> pkgCMT;
envATLAS_offline -> pkgOpenAFS1_4_14;
envATLAS_online -> pkgperl;
envATLAS_online -> cfge1000_driver;
envATLAS_online -> pkgJava__JDK_;
envATLAS_online -> pkgOpenMotif;
envATLAS_online -> pkggcc;
envATLAS_online -> pkgssh;
envATLAS_online -> pkgGAUDI;
envATLAS_online -> pkgexpect;
envATLAS_online -> pkgqt;
envATLAS_online -> envDesktop;
envATLAS_online -> pkgpython;
envATLAS_online -> cfgkernel_scheduling;
envATLAS_online -> pkgmysql;
envATLAS_online -> envLCG_application_Area;
envATLAS_online -> pkgCMT;
envBE_CO_development -> pkgmail_clients;
envBE_CO_development -> pkgMathematica8;
envBE_CO_development -> pkgOpenMotif;
envBE_CO_development -> pkggdb;
envBE_CO_development -> pkggcc;
envBE_CO_development -> pkgemacs;
envBE_CO_development -> pkgORACLE_Instant_Client11_0_2_0_3;
envBE_CO_development -> pkgHEPiX_shells_scripts;
envBE_CO_development -> pkgCVS_client;
envBE_CO_development -> pkgkernel_source;
envBE_CO_development -> pkgOpenAFS1_4_14;
envBE_CO_operations -> pkgLabview8_6;
envBE_CO_operations -> pkgPVSS3_8SP2;
envBE_CO_operations -> pkgTSM_client;
envBE_CO_operations -> pkgconserver;
envBE_CO_operations -> envBE_CO_development;
envBase -> pkgInstallation;
envBase -> pkgssh;
envBase -> pkgsendmail;
envBase -> pkgkernel;
envBase -> pkgOpenAFS1_4_14;
pkgCASTOR_server_sw2_1_11 -> pkgSTK_SSI;
pkgCASTOR_server_sw2_1_11 -> pkgVDT_Globus;
pkgCASTOR_server_sw2_1_11 -> pkgORACLE_Full_Client_Software10gR2__10_2_0_5___11gR2__11_2_0_3_;
envCASTOR_service -> pkgCASTOR_server_sw2_1_11;
envCASTOR_service -> pkgCASTOR_client_sw2_1_11;
envCASTOR_service -> envTape_Servers;
envCASTOR_service -> pkgkernel;
envCASTOR_service -> envDisk_Servers;
envCERN_Document_Service -> pkgquattor;
envCERN_Document_Service -> pkgShibboleth;
envCERN_Document_Service -> pkgOpenAFS1_4_14;
pkgCERNLIB2006_3 -> pkgOpenMotif;
pkgCERNLIB2006_3 -> pkggcc;
pkgCERNLIB2006_3 -> pkgLIBSHIFT;
pkgCERNLIB2006_3 -> pkgpaw;
pkgCERNLIB2006_3 -> pkgGEANT3;
envCMS_offline -> envPLUS_BATCH;
envCMS_offline -> pkggcc;
envCMS_offline -> pkgLIBSHIFT;
envCMS_offline -> pkgCERNLIB2006_3;
envCMS_offline -> pkgGEANT4;
envCMS_offline -> pkgROOT;
envCMS_online -> pkgprinting;
envCMS_online -> pkgperl;
envCMS_online -> pkgcdb_server;
envCMS_online -> pkgquattor_client_software;
envCMS_online -> pkgrdesktop;
envCMS_online -> pkggcc;
envCMS_online -> pkgssh;
envCMS_online -> pkgquattor;
envCMS_online -> pkgCASTOR_client_sw2_1_11;
envCMS_online -> pkgORACLE_Instant_Client11_0_2_0_3;
envCMS_online -> pkgipmitool;
envCMS_online -> pkgPVSS3_8SP2;
envCMS_online -> pkgkernel_source;
envCMS_online -> pkgsubversion1_6;
envCMS_online -> pkgphonebook;
envCMS_online -> pkgTSM_client;
pkgCMT -> pkgglibc_static;
envCOMPASS -> pkgCASTOR_client_sw2_1_11;
envCOMPASS -> pkgORACLE_Instant_Client11_0_2_0_3;
envCOMPASS -> pkgLIBSHIFT;
envCOMPASS -> envLCG_application_Area;
envCOMPASS -> pkgROOT;
envCVI -> pkgmshvicrhel6_60__also_called__3__;
envCVS_servers -> pkgCVS_client;
envCertification -> envATLAS_offline;
envCertification -> envATLAS_online;
envCertification -> envALICE_offline;
envCertification -> envBE_CO_operations;
envCertification -> envALICE_online;
envCertification -> envBE_CO_development;
envCertification -> envIT_services__catchall_;
envCertification -> envDesktop;
envCertification -> envPLUS_BATCH;
envCertification -> envNon_LHC_experiments;
envCertification -> envLCG_application_Area;
envCertification -> envLHCb_Online;
envCertification -> envCMS_offline;
envCertification -> envLHCb_Offline;
envCertification -> envCMS_online;
envDesktop -> pkgprinting;
envDesktop -> pkgmail_clients;
envDesktop -> pkgtcsh;
envDesktop -> envDevelopment_Support;
envDesktop -> envBase;
envDesktop -> pkgssh;
envDesktop -> pkgopenoffice;
envDesktop -> pkgEDH_web_client;
envDesktop -> pkgxscreensaver;
envDesktop -> pkggdm;
envDesktop -> pkgHEPiX_shells_scripts;
envDesktop -> pkgkernel;
envDevelopment_Support -> pkgJava__JDK_;
envDevelopment_Support -> pkgtcl_tk;
envDevelopment_Support -> pkgORACLE_Instant_Client11_0_2_0_3;
envDevelopment_Support -> pkgddd;
envDevelopment_Support -> pkggdb;
envDevelopment_Support -> pkggcc;
envDevelopment_Support -> pkgCERNLIB2006_3;
envDevelopment_Support -> pkgGEANT4;
pkgEDH_web_client -> pkgSeamonkey;
pkgELFms -> pkgLEAF;
pkgELFms -> pkgLEMON;
pkgELFms -> pkgquattor;
envEngineer_Desktop -> pkgMATLABR2010a;
envEngineer_Desktop -> pkgMathematica8;
envEngineer_Desktop -> pkgMADX__;
envEngineer_Desktop -> pkgStar_CCM_5_04_and_6_01;
envEngineer_Desktop -> pkgStarCD4_0_6;
envEngineer_Desktop -> pkgANSYS12_1___13;
envEngineer_Desktop -> pkgHFSS12_1;
envEngineer_Desktop -> pkgCadence_iUS8_2;
envEngineer_Desktop -> pkgCadence_SPB16_02;
envEngineer_Desktop -> envDesktop;
envEngineer_Desktop -> pkgAnsys_Workbench13;
envEngineer_Desktop -> pkgROXIE;
pkgGAUDI -> pkggcc;
pkgGAUDI -> pkgCMT;
pkgGAUDI -> pkgROOT;
pkgGEANT4 -> pkggcc;
envHARP -> pkgORACLE_Instant_Client11_0_2_0_3;
envIT_CF -> envIT_CF_ASI;
envIT_CF -> envIT_CF_SAO;
envIT_CF_ASI -> pkgREMEDY_web_client;
envIT_CF_ASI -> pkgELFms;
envIT_CF_ASI -> pkgELFms_CC_tools;
envIT_CIS -> envIndico;
envIT_CIS -> envVideoconference;
envIT_CIS -> envWebcast;
envIT_CIS -> envCERN_Document_Service;
envIT_CS -> envNetwork_servers;
envIT_DSS -> envCASTOR_service;
envIT_DSS -> envAFS_servers;
envIT_OIS -> pkgCASTOR_client_sw2_1_11;
envIT_OIS -> pkgipmitool;
envIT_OIS -> pkgREMEDY_web_client;
envIT_OIS -> envWeb_servers;
envIT_OIS -> envIT_OIS_ODS;
envIT_OIS -> pkgX_Win32;
envIT_OIS -> pkgrdesktop;
envIT_OIS -> pkgTSM_client;
envIT_OIS_ODS -> envDesktop;
envIT_OIS_ODS -> envCVI;
envIT_PES -> envSVN_Servers;
envIT_PES -> pkgSIXTRACK;
envIT_PES -> pkgORACLE_Full_Client_Software10gR2__10_2_0_5___11gR2__11_2_0_3_;
envIT_PES -> envEngineer_Desktop;
envIT_PES -> envCVS_servers;
envIT_PES -> envcommercial_development_tools;
envIT_PES -> pkgORACLE_Instant_Client11_0_2_0_3;
envIT_PES -> envPLUS_BATCH;
envIT_PES -> envIT_PES_PS;
envIT_PES_PS -> pkgPrepareInstall;
envIT_services__catchall_ -> envIT_CS;
envIT_services__catchall_ -> envIT_ES;
envIT_services__catchall_ -> envIT_DSS;
envIT_services__catchall_ -> envIT_CIS;
envIT_services__catchall_ -> envIT_DB;
envIT_services__catchall_ -> envIT_PES;
envIT_services__catchall_ -> envIT_CF;
envIT_services__catchall_ -> envIT_GT;
envIT_services__catchall_ -> envIT_OIS;
envIT_services__catchall_ -> envIT_DI;
envLCG_application_Area -> pkgCMT;
pkgLEMON -> pkgLEMON_sensors;
envLHCb_Offline -> envLHCb_Visualisation;
envLHCb_Offline -> pkgGAUDI;
envLHCb_Offline -> envLHCb_Production_Tools;
envLHCb_Offline -> envLHCb_Software_Development;
envLHCb_Offline -> pkgCERNLIB2006_3;
envLHCb_Offline -> pkgGEANT4;
envLHCb_Online -> pkgORACLE_Instant_Client11_0_2_0_3;
envLHCb_Online -> pkgquattor;
envLHCb_Online -> pkgPVSS3_8SP2;
envLHCb_Online -> pkgOpenAFS1_4_14;
envLHCb_Software_Development -> pkgpython;
envLHCb_Software_Development -> pkgemacs;
envLHCb_Software_Development -> pkgperl;
envLHCb_Software_Development -> pkgemacs_el;
pkgLIBSHIFT -> pkgCASTOR_client_sw2_1_11;
pkgLSF -> pkgOpenAFS1_4_14;
pkgMADX__ -> pkgfsplit5_5_3;
pkgMADX__ -> pkgf2c;
envNA48 -> pkgperl;
envNA48 -> pkgprinting;
envNA48 -> pkgddd;
envNA48 -> pkggdb;
envNA48 -> pkggcc;
envNA48 -> pkgLIBSHIFT;
envNA48 -> pkgssh;
envNA48 -> pkgCERNLIB2006_3;
envNA48 -> pkgalpine;
envNA48 -> pkgGEANT3;
envNA48 -> pkgemacs;
envNA48 -> pkgCASTOR_client_sw2_1_11;
envNA48 -> pkgLSF;
envNA48 -> pkgpython;
envNA48 -> pkgOpenAFS1_4_14;
envNA48 -> pkgTSM_client;
envNA60 -> pkgprinting;
envNA60 -> pkgperl;
envNA60 -> pkgddd;
envNA60 -> pkggdb;
envNA60 -> pkggcc;
envNA60 -> pkgLIBSHIFT;
envNA60 -> pkgssh;
envNA60 -> pkgCERNLIB2006_3;
envNA60 -> pkgalpine;
envNA60 -> pkgGEANT3;
envNA60 -> pkgROOT;
envNA60 -> pkgCASTOR_client_sw2_1_11;
envNA60 -> pkgemacs;
envNA60 -> pkgLSF;
envNA60 -> pkgpython;
envNA60 -> pkgOpenAFS1_4_14;
pkgNAG_C -> pkggcc;
envNetwork_servers -> cfg3ware_driver;
envNon_LHC_experiments -> envDELPHI;
envNon_LHC_experiments -> envNA48;
envNon_LHC_experiments -> envCOMPASS;
envNon_LHC_experiments -> envOPAL;
envNon_LHC_experiments -> envHARP;
envNon_LHC_experiments -> envDevelopment_Support;
envNon_LHC_experiments -> envDIRAC;
envNon_LHC_experiments -> envOPERA;
envNon_LHC_experiments -> envALEPH;
envNon_LHC_experiments -> envNA49;
envNon_LHC_experiments -> pkgCERNLIB2006_3;
envNon_LHC_experiments -> pkgROOT;
envNon_LHC_experiments -> envNA60;
envNon_LHC_experiments -> envPLUS_BATCH;
envNon_LHC_experiments -> pkgDATE;
envOPAL -> pkgCASTOR_client_sw2_1_11;
envOPAL -> pkgnpatchy;
envOPAL -> pkgLIBSHIFT;
envOPAL -> pkgCERNLIB2006_3;
envOPAL -> pkggfortran;
envOPAL -> pkgvi;
pkgOpenAFS1_4_14 -> pkgkernel;
envPLUS_BATCH -> pkgperl_Proc_ProcessTable;
envPLUS_BATCH -> pkgperl;
envPLUS_BATCH -> pkgprinting;
envPLUS_BATCH -> pkgphonebook;
envPLUS_BATCH -> envDevelopment_Support;
envPLUS_BATCH -> pkgtkdiff;
envPLUS_BATCH -> pkgssh;
envPLUS_BATCH -> envCASTOR_service;
envPLUS_BATCH -> pkgxscreensaver;
envPLUS_BATCH -> pkgHEPiX_shells_scripts;
envPLUS_BATCH -> pkgREMEDY_web_client;
envPLUS_BATCH -> envDesktop;
envPLUS_BATCH -> pkgHummingbird_eXceed;
envPLUS_BATCH -> pkgmail_clients;
envPLUS_BATCH -> pkgacrobat;
envPLUS_BATCH -> pkgghostview_gv;
envPLUS_BATCH -> pkgCERN_TeX_styles;
envPLUS_BATCH -> pkgTeX_LaTeX;
envPLUS_BATCH -> pkgacrontab;
envPLUS_BATCH -> pkgarc;
envPLUS_BATCH -> pkgELFms;
envPLUS_BATCH -> pkgemacs;
envPLUS_BATCH -> pkgpico;
envPLUS_BATCH -> pkgLSF;
envPLUS_BATCH -> pkgperl_BSD_Resource;
envPLUS_BATCH -> pkgperl_Text_CSV_XS;
envPLUS_BATCH -> pkgperl_SQL_Statement;
envPLUS_BATCH -> pkgperl_DBD_Oracle;
envPLUS_BATCH -> pkgperl_Tk;
envPLUS_BATCH -> pkgperl_DBD_CSV;
pkgPVSS3_8SP2 -> pkgORACLE_Instant_Client11_0_2_0_3;
pkgPVSS3_8SP2 -> pkggcc;
pkgPVSS3_8SP2 -> pkgcompat_gcc_34;
pkgPrepareInstall -> pkgperl_DBD_Oracle;
pkgREMEDY_web_client -> pkgSeamonkey;
pkgREMEDY_web_client -> pkgJava__JRE_;
pkgROOT -> pkggcc;
pkgSIXTRACK -> pkgCASTOR_client_sw2_1_11;
pkgSIXTRACK -> pkgfsplit5_5_3;
pkgSIXTRACK -> pkghtml2ps;
pkgSIXTRACK -> pkgf2c;
envVideoconference -> pkgVidyo;
envWeb_servers -> pkgmod_perl;
envWeb_servers -> pkgquattor;
envWebcast -> pkgflash_player;
envcommercial_development_tools -> pkgNAG_Fortran;
envcommercial_development_tools -> pkgPGI_compilers;
envcommercial_development_tools -> pkgTotalView;
envcommercial_development_tools -> pkgLahey_Fortran;
pkgemacs_el -> pkgemacs;
pkgkernel -> cfgkernel_scheduling;
pkgkernel_source -> pkgkernel;
pkgmail_clients -> pkgalpine;
pkgmail_clients -> pkgSeamonkey;
pkgoprofile -> pkgkernel;
pkgperl_DBD_Oracle -> pkgORACLE_Instant_Client11_0_2_0_3;
pkgquattor -> pkgcdb_server;
pkgquattor -> pkgswrep_server;
pkgquattor -> pkgquattor_client_software;
pkgquattor -> pkgNCM_components;
};
